\relax 
\@writefile{toc}{\contentsline {section}{\numberline {1}Introduction}{1}\protected@file@percent }
\@writefile{toc}{\contentsline {section}{\numberline {2}Parallel Scan (not really)}{1}\protected@file@percent }
\@writefile{toc}{\contentsline {section}{\numberline {3}Binary Tree}{2}\protected@file@percent }
\@writefile{toc}{\contentsline {section}{\numberline {4}Results}{2}\protected@file@percent }
